…
Function to generate 5000 bootstrap samples.

``` r
boot_straps = tibble(
    strap_number = 1:5000,
    strap_sample = rerun(5000, boot_sample(weather_df))
  )

boot_straps
```

    ## # A tibble: 5,000 × 2
    ##    strap_number strap_sample      
    ##           <int> <list>            
    ##  1            1 <tibble [365 × 6]>
    ##  2            2 <tibble [365 × 6]>
    ##  3            3 <tibble [365 × 6]>
    ##  4            4 <tibble [365 × 6]>
    ##  5            5 <tibble [365 × 6]>
    ##  6            6 <tibble [365 × 6]>
    ##  7            7 <tibble [365 × 6]>
    ##  8            8 <tibble [365 × 6]>
    ##  9            9 <tibble [365 × 6]>
    ## 10           10 <tibble [365 × 6]>
    ## # … with 4,990 more rows
…
Results for R Squared Values

``` r
r_squared_boot = boot_straps %>% 
  mutate(
    models = map(strap_sample, ~lm(tmax ~ tmin, data = .x)), 
    results = map(models, broom::tidy)) %>% 
  select(-strap_sample, -models) %>% 
  unnest(results)
r_squared_boot
```

    ## # A tibble: 10,000 × 6
    ##    strap_number term        estimate std.error statistic   p.value
    ##           <int> <chr>          <dbl>     <dbl>     <dbl>     <dbl>
    ##  1            1 (Intercept)     7.10    0.216       32.9 8.09e-111
    ##  2            1 tmin            1.05    0.0164      64.1 5.21e-200
    ##  3            2 (Intercept)     7.27    0.241       30.1 7.44e-101
    ##  4            2 tmin            1.02    0.0175      58.2 3.40e-186
    ##  5            3 (Intercept)     6.89    0.223       30.9 1.29e-103
    ##  6            3 tmin            1.06    0.0164      64.8 1.51e-201
    ##  7            4 (Intercept)     6.83    0.213       32.1 4.44e-108
    ##  8            4 tmin            1.07    0.0162      65.9 3.95e-204
    ##  9            5 (Intercept)     7.79    0.230       33.9 1.61e-114
    ## 10            5 tmin            1.02    0.0170      59.7 1.06e-189
    ## # … with 9,990 more rows
